[schematic2]
uniq 341
[tools]
[detail]
w 2338 1899 100 0 FLNK egenSub.combCars2.FLNK 2256 1888 2480 1888 outhier.FLNK.p
w 2330 2475 100 0 OUTC egenSub.combCars2.OUTC 2256 2464 2464 2464 outhier.OUTC.p
w 2330 2539 100 0 OUTB egenSub.combCars2.OUTB 2256 2528 2464 2528 outhier.OUTB.p
w 2330 2603 100 0 OUTA egenSub.combCars2.OUTA 2256 2592 2464 2592 outhier.OUTA.p
w 1530 2123 100 0 n#336 egenSub.combCars21.FLNK 1360 2112 1760 2112 1760 1920 1968 1920 egenSub.combCars2.SLNK
w 1530 1227 100 0 n#336 junction 1760 1920 1760 1216 1360 1216 egenSub.combCars22.FLNK
w 1498 1803 100 0 n#335 egenSub.combCars22.OUTC 1360 1792 1696 1792 1696 2304 1968 2304 egenSub.combCars2.F
w 1786 2379 100 0 n#334 egenSub.combCars2.E 1968 2368 1664 2368 1664 1856 1360 1856 egenSub.combCars22.OUTB
w 1770 2443 100 0 n#333 egenSub.combCars22.OUTA 1360 1920 1632 1920 1632 2432 1968 2432 egenSub.combCars2.D
w 1770 2507 100 0 n#332 egenSub.combCars21.OUTC 1360 2688 1632 2688 1632 2496 1968 2496 egenSub.combCars2.C
w 1482 2763 100 0 n#331 egenSub.combCars21.OUTB 1360 2752 1664 2752 1664 2560 1968 2560 egenSub.combCars2.B
w 1498 2827 100 0 n#330 egenSub.combCars21.OUTA 1360 2816 1696 2816 1696 2624 1968 2624 egenSub.combCars2.A
s -112 816 200 0 message. The results are reported up to the dcOvrAllCar gensub record.
s -112 864 200 0 the CAR value that is the highest along with its corresponding error code and
s -112 912 200 0 individual CAR records. Each gensub takes upt to 3 CAR inputs and outputs
s -112 960 200 0 This lower level schematic contains records for hierarchically combining
[cell use]
use egenSub 1136 2016 150 0 combCars22
xform 0 1216 1584
p 1168 1884 65 0 1 FTA:LONG
p 1168 1864 65 0 1 FTB:LONG
p 1168 1844 65 0 1 FTC:STRING
p 1168 1696 65 0 1 FTVA:LONG
p 1168 1676 65 0 1 FTVB:LONG
p 1168 1656 65 0 1 FTVC:STRING
p 849 869 100 0 -1 FTVD:DOUBLE
p 1176 1208 65 0 1 PV:$(top)
p 1136 1152 65 0 1 SNAM:dcCombCars
p 656 1920 80 0 1 def(INPA):$(top)DSPDirectCmdC.VAL
p 656 1856 80 0 1 def(INPB):$(top)DSPDirectCmdC.OERR
p 656 1792 80 0 1 def(INPC):$(top)DSPDirectCmdC.OMSS
use egenSub 2032 2688 150 0 combCars2
xform 0 2112 2256
p 2064 2556 65 0 1 FTA:LONG
p 2064 2536 65 0 1 FTB:LONG
p 2064 2516 65 0 1 FTC:STRING
p 2064 2496 65 0 1 FTD:LONG
p 2064 2476 65 0 1 FTE:LONG
p 2064 2456 65 0 1 FTF:STRING
p 2064 2436 65 0 1 FTG:LONG
p 2064 2416 65 0 1 FTH:LONG
p 2064 2396 65 0 1 FTI:STRING
p 2064 2368 65 0 1 FTVA:LONG
p 2064 2348 65 0 1 FTVB:LONG
p 2064 2328 65 0 1 FTVC:STRING
p 2112 2256 65 3328 1 FTVD:LONG
p 2080 2224 65 0 1 FTVE:LONG
p 2080 2208 65 0 1 FTVF:STRING
p 2080 2192 65 0 1 FTVG:LONG
p 2080 2176 65 0 1 FTVH:LONG
p 2080 2160 65 0 1 FTVI:STRING
p 2072 1880 65 0 1 PV:$(top)
p 2048 1824 65 0 1 SNAM:dcCombCars
p 1552 2592 100 0 0 def(INPA):0
p 1552 2528 100 0 0 def(INPB):0
p 1552 2464 100 0 0 def(INPC):0
p 1552 2400 100 0 0 def(INPD):0
p 1552 2336 100 0 0 def(INPE):0
p 1552 2272 100 0 0 def(INPF):0
p 1712 2212 65 0 0 def(INPG):
p 1704 2148 65 0 0 def(INPH):
p 1704 2084 65 0 0 def(INPI):
use egenSub 1136 2912 150 0 combCars21
xform 0 1216 2480
p 1168 2780 65 0 1 FTA:LONG
p 1168 2760 65 0 1 FTB:LONG
p 1168 2740 65 0 1 FTC:STRING
p 1168 2720 65 0 1 FTD:LONG
p 1168 2700 65 0 1 FTE:LONG
p 1168 2680 65 0 1 FTF:STRING
p 1168 2660 65 0 1 FTG:LONG
p 1168 2640 65 0 1 FTH:LONG
p 1168 2620 65 0 1 FTI:STRING
p 1168 2592 65 0 1 FTVA:LONG
p 1168 2572 65 0 1 FTVB:LONG
p 1168 2552 65 0 1 FTVC:STRING
p 1168 2464 65 0 1 FTVD:LONG
p 1168 2448 65 0 1 FTVE:LONG
p 1168 2432 65 0 1 FTVF:STRING
p 1168 2416 65 0 1 FTVG:LONG
p 1168 2400 65 0 1 FTVH:LONG
p 1168 2384 65 0 1 FTVI:STRING
p 1176 2104 65 0 1 PV:$(top)
p 1136 2048 65 0 1 SNAM:dcCombCars
p 656 2816 80 0 1 def(INPA):$(top)testC.VAL
p 656 2752 80 0 1 def(INPB):$(top)testC.OERR
p 656 2688 80 0 1 def(INPC):$(top)testC.OMSS
p 656 2624 80 0 1 def(INPD):$(top)pauseC.VAL
p 656 2560 80 0 1 def(INPE):$(top)pauseC.OERR
p 656 2496 80 0 1 def(INPF):$(top)pauseC.OMSS
p 664 2432 80 0 1 def(INPG):$(top)continueC.VAL
p 656 2368 80 0 1 def(INPH):$(top)continueC.OERR
p 656 2304 80 0 1 def(INPI):$(top)continueC.OMSS
use outhier 2432 2551 100 0 OUTA
xform 0 2448 2592
use outhier 2432 2487 100 0 OUTB
xform 0 2448 2528
use outhier 2448 1847 100 0 FLNK
xform 0 2464 1888
use outhier 2432 2423 100 0 OUTC
xform 0 2448 2464
use eborderC -288 583 100 0 eborderC#0
xform 0 1392 1888
p 2288 736 100 768 -1 author:Peter Young
p 2288 848 40 0 -1 comment1:1997-10-01 GMOS version. Janet Tvedt
p 2288 828 40 0 -1 comment2:2000-12-12 Modified for GNIRS. Peter Young
p 2288 704 100 768 -1 date:2000-12-12
p 2512 784 200 768 -1 file:dcCombCar2.sch
p 2784 736 100 0 -1 page:1
p 2896 736 100 0 -1 pages:1
p 2512 704 100 0 0 primitive:eborderD
p 2560 736 100 0 -1 revision:2
p 2512 848 150 768 -1 system:Gemini GNIRS DC
[comments]
