[schematic2]
uniq 318
[tools]
[detail]
w 5058 2731 100 0 FLNK egenSub.combCars3.FLNK 4960 2720 5216 2720 outhier.FLNK.p
w 5058 3307 100 0 OUTC egenSub.combCars3.OUTC 4960 3296 5216 3296 outhier.OUTC.p
w 5058 3371 100 0 OUTB egenSub.combCars3.OUTB 4960 3360 5216 3360 outhier.OUTB.p
w 5058 3435 100 0 OUTA egenSub.combCars3.OUTA 4960 3424 5216 3424 outhier.OUTA.p
w 3530 2731 100 0 n#313 egenSub.combCars31.FLNK 3168 2832 3392 2832 3392 2720 3728 2720 egenSub.combCars32.SLNK
w 4474 2763 100 0 n#249 egenSub.combCars32.FLNK 4016 2688 4336 2688 4336 2752 4672 2752 egenSub.combCars3.SLNK
w 3954 3643 100 0 n#312 egenSub.combCars31.OUTA 3168 3536 3312 3536 3312 3632 4656 3632 4656 3456 4672 3456 egenSub.combCars3.A
w 3954 3579 100 0 n#311 egenSub.combCars31.OUTB 3168 3472 3376 3472 3376 3568 4592 3568 4592 3392 4672 3392 egenSub.combCars3.B
w 3954 3515 100 0 n#310 egenSub.combCars31.OUTC 3168 3408 3440 3408 3440 3504 4528 3504 4528 3328 4672 3328 egenSub.combCars3.C
w 4210 3403 100 0 n#309 egenSub.combCars32.OUTA 4016 3392 4464 3392 4464 3264 4672 3264 egenSub.combCars3.D
w 4178 3339 100 0 n#308 egenSub.combCars32.OUTB 4016 3328 4400 3328 4400 3200 4672 3200 egenSub.combCars3.E
w 4474 3147 100 0 n#307 egenSub.combCars32.OUTC 4016 3264 4336 3264 4336 3136 4672 3136 egenSub.combCars3.F
s 2432 2032 200 0 This lower level schematic contains records for hierarchically combining
s 2432 1984 200 0 individual CAR records. Each gensub takes upt to 3 CAR inputs and outputs
s 2432 1936 200 0 the CAR value that is the highest along with its corresponding error code and
s 2432 1888 200 0 message. The results are reported up to the dcOvrAllCar gensub record.
[cell use]
use outhier 5184 3383 100 0 OUTA
xform 0 5200 3424
use outhier 5184 3319 100 0 OUTB
xform 0 5200 3360
use outhier 5184 3255 100 0 OUTC
xform 0 5200 3296
use outhier 5184 2679 100 0 FLNK
xform 0 5200 2720
use egenSub 4736 3504 150 0 combCars3
xform 0 4816 3088
p 4776 3364 100 768 1 FTA:LONG
p 4776 3348 100 768 1 FTB:LONG
p 4776 3332 100 0 1 FTC:STRING
p 4776 3316 100 0 1 FTD:LONG
p 4776 3300 100 0 1 FTE:LONG
p 4776 3284 100 0 1 FTF:STRING
p 4776 3268 100 0 1 FTG:LONG
p 4776 3252 100 0 1 FTH:LONG
p 4776 3236 100 0 1 FTI:STRING
p 4449 2181 100 0 0 FTJ:DOUBLE
p 4776 3204 100 0 1 FTVA:LONG
p 4776 3188 100 0 1 FTVB:LONG
p 4776 3168 100 0 1 FTVC:STRING
p 4760 2748 100 0 1 PV:$(top)
p 4384 3358 100 0 0 SCAN:Passive
p 4752 2656 100 0 1 SNAM:dcCombCars
p 4388 3424 65 0 0 def(INPA):0.0
p 4388 3360 65 0 0 def(INPB):0.0
p 4392 3296 65 0 0 def(INPC):0.0
p 4392 3232 65 0 0 def(INPD):0.0
p 4392 3168 65 0 0 def(INPE):0.0
p 4388 3104 65 0 0 def(INPF):0.0
p 4800 2960 100 0 1 def(INPG):$(top)parkC.VAL
p 4288 2976 100 0 1 def(INPH):$(top)parkC.OERR
p 4288 2912 100 0 1 def(INPI):$(top)parkC.OMSS
use egenSub 2944 3632 150 0 combCars31
xform 0 3024 3200
p 2960 3536 100 0 1 FTA:LONG
p 2976 3504 100 0 1 FTB:LONG
p 2976 3472 100 0 1 FTC:STRING
p 2976 3440 100 0 1 FTD:LONG
p 2976 3408 100 0 1 FTE:LONG
p 2976 3376 100 0 1 FTF:STRING
p 2976 3344 100 0 1 FTG:LONG
p 2976 3312 100 0 1 FTH:LONG
p 2976 3280 100 0 1 FTI:STRING
p 2960 3104 100 0 1 FTVA:LONG
p 2960 3072 100 0 1 FTVB:LONG
p 2960 3040 100 0 1 FTVC:STRING
p 2677 1889 100 0 1 PV:$(top)
p 2944 2752 100 0 1 SNAM:dcCombCars
p 2544 3536 100 0 -1 def(INPA):$(top)verifyC.VAL
p 2544 3472 100 0 -1 def(INPB):$(top)verifyC.OERR
p 2544 3408 100 0 -1 def(INPC):$(top)verifyC.OMSS
p 2544 3344 100 0 -1 def(INPD):$(top)endVerifyC.VAL
p 2544 3280 100 0 -1 def(INPE):$(top)endVerifyC.OERR
p 2544 3216 100 0 -1 def(INPF):$(top)endVerifyC.OMSS
p 2544 3152 100 0 -1 def(INPG):$(top)endObserveC.VAL
p 2544 3072 100 0 -1 def(INPH):$(top)endObserveC.OERR
p 2544 3008 100 0 -1 def(INPI):$(top)endObserveC.OMSS
use egenSub 3792 3472 150 0 combCars32
xform 0 3872 3056
p 3824 3408 100 0 1 FTA:LONG
p 3824 3376 100 0 1 FTB:LONG
p 3824 3344 100 0 1 FTC:STRING
p 3824 3312 100 0 1 FTD:LONG
p 3824 3280 100 0 1 FTE:LONG
p 3824 3248 100 0 1 FTF:STRING
p 3824 3216 100 0 1 FTG:LONG
p 3824 3184 100 0 1 FTH:LONG
p 3824 3152 100 0 1 FTI:STRING
p 3824 3120 100 0 1 FTJ:DOUBLE
p 3808 2928 100 0 1 FTVA:LONG
p 3808 2896 100 0 1 FTVB:LONG
p 3808 2864 100 0 1 FTVC:STRING
p 3525 1745 100 0 1 PV:$(top)
p 3776 2608 100 0 1 SNAM:dcCombCars
p 3505 2821 100 0 0 def(FLNK):
p 3408 3392 100 0 -1 def(INPA):$(top)datumC.VAL
p 3408 3328 100 0 -1 def(INPB):$(top)datumC.OERR
p 3408 3264 100 0 -1 def(INPC):$(top)datumC.OMSS
p 3408 3200 100 0 -1 def(INPD):$(top)guideC.VAL
p 3408 3134 100 0 -1 def(INPE):$(top)guideC.OERR
p 3408 3056 100 0 -1 def(INPF):$(top)guideC.OMSS
p 3408 3008 100 0 -1 def(INPG):$(top)endGuideC.VAL
p 3408 2944 100 0 -1 def(INPH):$(top)endGuideC.OERR
p 3408 2864 100 0 -1 def(INPI):$(top)endGuideC.OMSS
use eborderC 2280 1659 100 0 eborderC#0
xform 0 3960 2964
p 4856 1812 100 768 -1 author:Peter Young
p 4856 1924 40 0 -1 comment1:1997-10-01 GMOS version. Janet Tvedt
p 4856 1904 40 0 -1 comment2:2000-12-12 Modified for GNIRS. Peter Young
p 4856 1780 100 768 -1 date:2000-12-12
p 5080 1860 200 768 -1 file:dcCombCar3.sch
p 5352 1812 100 0 -1 page:1
p 5464 1812 100 0 -1 pages:1
p 5080 1780 100 0 0 primitive:eborderD
p 5128 1812 100 0 -1 revision:0
p 5080 1924 150 768 -1 system:Gemini GNIRS DC
[comments]
