[symbol2]
bbox -416 192 -256 352
port -272 240 100 2048 FLNK symbol 2 -256 240 0
port -272 272 100 2048 OUTC symbol 2 -256 272 0
port -272 304 100 2048 OUTB symbol 2 -256 304 0
port -272 336 100 2048 OUTA symbol 2 -256 336 0
uniq 4
[tools]
[attributes]
[layers]
<symbol>
l 100 7 0 -330 208 gnirsCombCar
r 0 -416 192 -256 352
[comments]
