[schematic2]
uniq 12
[tools]
[detail]
w 3714 3915 100 0 n#1 egenSub.combCars12.OUTA 3232 3904 4256 3904 4256 3120 4336 3120 egenSub.combCars1.D
w 3306 2251 100 0 n#2 egenSub.combCars13.FLNK 3216 2240 3456 2240 3456 2640 junction
w 3554 2651 100 0 n#2 egenSub.combCars12.FLNK 3232 3200 3456 3200 3456 2640 3712 2640 egenSub.combCars11.SLNK
w 3746 2379 100 0 n#3 egenSub.combCars13.OUTC 3216 2816 3296 2816 3296 2368 4256 2368 4256 2800 4336 2800 egenSub.combCars1.I
w 3746 2443 100 0 n#4 egenSub.combCars13.OUTB 3216 2880 3360 2880 3360 2432 4192 2432 4192 2864 4336 2864 egenSub.combCars1.H
w 3746 2507 100 0 n#5 egenSub.combCars13.OUTA 3216 2944 3424 2944 3424 2496 4128 2496 4128 2928 4336 2928 egenSub.combCars1.G
w 3650 3787 100 0 n#6 egenSub.combCars12.OUTC 3232 3776 4128 3776 4128 2992 4336 2992 egenSub.combCars1.F
w 3682 3851 100 0 n#7 egenSub.combCars12.OUTB 3232 3840 4192 3840 4192 3056 4336 3056 egenSub.combCars1.E
w 4794 2587 100 0 FLNK egenSub.combCars1.FLNK 4624 2576 5024 2576 outhier.FLNK.p
w 4794 3163 100 0 OUTC egenSub.combCars1.OUTC 4624 3152 5024 3152 outhier.OUTC.p
w 4794 3227 100 0 OUTB egenSub.combCars1.OUTB 4624 3216 5024 3216 outhier.OUTB.p
w 4800 3291 100 0 OUTA egenSub.combCars1.OUTA 4624 3280 5024 3280 outhier.OUTA.p
w 4138 2619 100 0 n#8 egenSub.combCars11.FLNK 4000 2608 4336 2608 egenSub.combCars1.SLNK
w 4138 3195 100 0 n#9 egenSub.combCars11.OUTC 4000 3184 4336 3184 egenSub.combCars1.C
w 4138 3259 100 0 n#10 egenSub.combCars11.OUTB 4000 3248 4336 3248 egenSub.combCars1.B
w 4138 3323 100 0 n#11 egenSub.combCars11.OUTA 4000 3312 4336 3312 egenSub.combCars1.A
s 2432 2032 200 0 This lower level schematic contains records for hierarchically combining
s 2432 1984 200 0 individual CAR records. Each gensub takes upt to 3 CAR inputs and outputs
s 2432 1936 200 0 the CAR value that is the highest along with its corresponding error code and
s 2432 1888 200 0 message. The results are reported up to the dcOvrAllCar gensub record.
[cell use]
use egenSub 3024 3984 150 0 combCars12
xform 0 3088 3568
p 3040 3904 100 0 1 FTA:LONG
p 3040 3872 100 0 1 FTB:LONG
p 3040 3840 100 0 1 FTC:STRING
p 3040 3808 100 0 1 FTD:LONG
p 3040 3776 100 0 1 FTE:LONG
p 3040 3744 100 0 1 FTF:STRING
p 3040 3712 100 0 1 FTG:LONG
p 3040 3680 100 0 1 FTH:LONG
p 3040 3648 100 0 1 FTI:STRING
p 3024 3488 100 0 1 FTVA:LONG
p 3024 3456 100 0 1 FTVB:LONG
p 3024 3424 100 0 1 FTVC:STRING
p 3024 3392 100 0 1 FTVD:LONG
p 3024 3360 100 0 1 FTVE:LONG
p 3024 3328 100 0 1 FTVF:STRING
p 3024 3296 100 0 1 FTVG:LONG
p 3024 3264 100 0 1 FTVH:LONG
p 3024 3232 100 0 1 FTVI:STRING
p 3024 3120 100 0 1 PV:$(top)
p 3008 3072 100 0 1 SNAM:dcCombCars
p 2480 3776 100 0 1 def(INPA):$(top)seqViewC.VAL
p 2480 3744 100 0 1 def(INPB):$(top)seqViewC.OERR
p 2480 3712 100 0 1 def(INPC):$(top)seqViewC.OMSS
p 2480 3680 100 0 1 def(INPD):$(top)seqObsC.VAL
p 2480 3648 100 0 1 def(INPE):$(top)seqObsC.OERR
p 2480 3616 100 0 1 def(INPF):$(top)seqObsC.OMSS
p 2480 3552 100 0 1 def(INPG):$(top)dataObsC.VAL
p 2480 3488 100 0 1 def(INPH):$(top)dataObsC.OERR
p 2480 3456 100 0 1 def(INPI):$(top)dataObsC.OMSS
use outhier 4992 2535 100 0 FLNK
xform 0 5008 2576
use outhier 4992 3111 100 0 OUTC
xform 0 5008 3152
use outhier 4992 3175 100 0 OUTB
xform 0 5008 3216
use outhier 4992 3239 100 0 OUTA
xform 0 5008 3280
use egenSub 4416 3360 150 0 combCars1
xform 0 4480 2944
p 4416 3248 100 0 1 FTA:LONG
p 4416 3216 100 0 1 FTB:LONG
p 4416 3184 100 0 1 FTC:STRING
p 4416 3152 100 0 1 FTD:LONG
p 4416 3120 100 0 1 FTE:LONG
p 4416 3088 100 0 1 FTF:STRING
p 4416 3056 100 0 1 FTG:LONG
p 4416 3024 100 0 1 FTH:LONG
p 4416 2992 100 0 1 FTI:STRING
p 4416 2816 100 0 1 FTVA:LONG
p 4416 2784 100 0 1 FTVB:LONG
p 4416 2752 100 0 1 FTVC:STRING
p 4416 2720 100 0 1 FTVD:LONG
p 4416 2688 100 0 1 FTVE:LONG
p 4416 2656 100 0 1 FTVF:STRING
p 4416 2624 100 0 1 FTVG:LONG
p 4416 2592 100 0 1 FTVH:LONG
p 4416 2560 100 0 1 FTVI:STRING
p 4416 2528 100 0 0 FTVJ:DOUBLE
p 4432 2496 100 0 1 PV:$(top)
p 4416 2464 100 0 1 SNAM:dcCombCars
use egenSub 3792 3392 150 0 combCars11
xform 0 3856 2976
p 3812 3316 100 0 1 FTA:LONG
p 3812 3296 100 0 1 FTB:LONG
p 3812 3276 100 0 1 FTC:STRING
p 3812 3248 100 0 1 FTD:LONG
p 3812 3228 100 0 1 FTE:LONG
p 3812 3208 100 0 1 FTF:STRING
p 3812 3180 100 0 1 FTG:LONG
p 3812 3160 100 0 1 FTH:LONG
p 3812 3140 100 0 1 FTI:STRING
p 3816 3204 100 0 0 FTJ:LONG
p 3808 2928 100 0 1 FTVA:LONG
p 3808 2896 100 0 1 FTVB:LONG
p 3808 2864 100 0 1 FTVC:STRING
p 3808 2832 100 0 1 FTVD:LONG
p 3808 2800 100 0 1 FTVE:LONG
p 3808 2768 100 0 1 FTVF:STRING
p 3808 2736 100 0 1 FTVG:LONG
p 3808 2704 100 0 1 FTVH:LONG
p 3808 2672 100 0 1 FTVI:STRING
p 3816 2724 100 0 0 FTVJ:DOUBLE
p 3808 2544 100 0 1 PV:$(top)
p 3776 2512 100 0 1 SNAM:dcCombCars
p 3824 3006 100 0 -1 Type:genSub
p 3476 3352 65 0 1 def(INPA):$(top)initC.VAL
p 3460 3292 65 0 1 def(INPB):$(top)initC.OERR
p 3460 3228 65 0 1 def(INPC):$(top)initC.OMSS
p 3480 3164 65 0 1 def(INPD):$(top)setupSDSUC.VAL
p 3468 3100 65 0 1 def(INPE):$(top)setupSDSUC.OERR
p 3464 3036 65 0 1 def(INPF):$(top)setupSDSUC.OMSS
p 3472 2976 65 0 1 def(INPG):$(top)observeC.VAL
p 3456 2908 65 0 1 def(INPH):$(top)observeC.OERR
p 3468 2840 65 0 1 def(INPI):$(top)observeC.OMSS
p 3664 3322 75 0 -1 pproc(INPA):NPP
p 4000 3322 75 0 -1 pproc(OUTA):NPP
use egenSub 3008 3024 150 0 combCars13
xform 0 3072 2608
p 3024 2944 100 0 1 FTA:LONG
p 3024 2912 100 0 1 FTB:LONG
p 3024 2880 100 0 1 FTC:STRING
p 3024 2848 100 0 1 FTD:LONG
p 3024 2816 100 0 1 FTE:LONG
p 3024 2784 100 0 1 FTF:STRING
p 3024 2752 100 0 1 FTG:LONG
p 3024 2720 100 0 1 FTH:LONG
p 3024 2688 100 0 1 FTI:STRING
p 3008 2528 100 0 1 FTVA:LONG
p 3008 2496 100 0 1 FTVB:LONG
p 3008 2464 100 0 1 FTVC:STRING
p 3008 2432 100 0 1 FTVD:LONG
p 3008 2400 100 0 1 FTVE:LONG
p 3008 2368 100 0 1 FTVF:STRING
p 3008 2336 100 0 1 FTVG:LONG
p 3008 2304 100 0 1 FTVH:LONG
p 3008 2272 100 0 1 FTVI:STRING
p 3008 2160 100 0 1 PV:$(top)
p 2992 2112 100 0 1 SNAM:dcCombCars
p 2464 2816 100 0 1 def(INPA):$(top)dataViewC.VAL
p 2464 2784 100 0 1 def(INPB):$(top)dataViewC.OERR
p 2464 2752 100 0 1 def(INPC):$(top)dataViewC.OMSS
p 2464 2720 100 0 0 def(INPD):
p 2464 2688 100 0 0 def(INPE):
p 2464 2656 100 0 0 def(INPF):
p 2464 2624 100 0 0 def(INPG):0
p 2464 2592 100 0 0 def(INPH):0
p 2464 2560 80 0 0 def(INPI):0
use eborderC 2280 1659 100 0 eborderC#0
xform 0 3960 2964
p 4856 1812 100 768 -1 author:Peter Young
p 4856 1924 40 0 -1 comment1:1997-10-01 GMOS version. Janet Tvedt
p 4856 1904 40 0 -1 comment2:2000-12-12 Modified for GNIRS. Peter Young
p 4856 1780 100 768 -1 date:2000-12-12
p 5080 1860 200 768 -1 file:dcCombCar1.sch
p 5352 1812 100 0 -1 page:1
p 5464 1812 100 0 -1 pages:1
p 5080 1780 100 0 0 primitive:eborderD
p 5128 1812 100 0 -1 revision:2
p 5080 1924 150 768 -1 system:Gemini GNIRS DC
[comments]
