[schematic2]
uniq 7
[tools]
[detail]
w 1024 -637 100 0 n#1 estringouts.gratMaxIn.FLNK 992 -640 1056 -640 1056 -576 1136 -576 estringouts.gratMax.SLNK
w 1064 -541 100 0 n#2 hwin.hwin#97.in 992 -544 1136 -544 estringouts.gratMax.DOL
w -56 -525 100 0 n#3 hwin.hwin#96.in -128 -528 16 -528 estringouts.gratMin.DOL
w -96 -621 100 0 n#4 estringouts.gratMinIn.FLNK -128 -624 -64 -624 -64 -560 16 -560 estringouts.gratMin.SLNK
w -1144 -525 100 0 n#5 hwin.hwin#90.in -1216 -528 -1072 -528 estringouts.gratName.DOL
w -1184 -621 100 0 n#6 estringouts.gratNameIn.FLNK -1216 -624 -1152 -624 -1152 -560 -1072 -560 estringouts.gratName.SLNK
s 1040 -1040 500 0 GNIRS DC DHS Status/Alarm Database
s -1440 -464 100 0 Copy of CC gratName so that GNIRS DC C++ code can access using dbGetField
s -352 -464 100 0 Copy of CC waveMin so that GNIRS DC C++ code can access using dbGetField
s 768 -480 100 0 Copy of CC waveMax so that GNIRS DC C++ code can access using dbGetField
[cell use]
use esirs -512 -121 100 0 utend
xform 0 -304 32
p -416 -144 100 0 1 DESC:UT at exposure end
p -576 -320 100 0 0 EGU:time
p -576 -384 100 0 0 FDSC:UT at exposure end
p -416 -176 100 0 1 FTVL:STRING
p -416 -240 100 0 1 PV:$(sadtop)
p -416 -208 100 0 1 SNAM:
use esirs -512 327 100 0 utstart
xform 0 -304 480
p -416 304 100 0 1 DESC:UT at exposure start
p -576 128 100 0 0 EGU:time
p -576 64 100 0 0 FDSC:UT at exposure start
p -416 272 100 0 1 FTVL:STRING
p -416 208 100 0 1 PV:$(sadtop)
p -416 240 100 0 1 SNAM:
use esirs 96 807 100 0 utnow
xform 0 304 960
p 192 784 100 0 1 DESC:Universal Time now
p 32 608 100 0 0 EGU:time
p 32 544 100 0 0 FDSC:Universal Time now
p 192 752 100 0 1 FTVL:STRING
p 192 688 100 0 1 PV:$(sadtop)
p 192 656 100 0 1 SCAN:1 second
p 192 720 100 0 1 SNAM:
use esirs 96 327 100 0 bunit
xform 0 304 480
p 192 304 100 0 1 DESC:Data units
p 32 128 100 0 0 EGU:
p 32 64 100 0 0 FDSC:Data units (as generated by array)
p 192 272 100 0 1 FTVL:STRING
p 192 208 100 0 1 PV:$(sadtop)
p 192 240 100 0 1 SNAM:
use esirs 96 -121 100 0 dataLabel
xform 0 304 32
p 192 -144 100 0 1 DESC:Latest data label
p 32 -320 100 0 0 EGU:Data label
p 32 -384 100 0 0 FDSC:Latest data label
p 192 -176 100 0 1 FTVL:STRING
p 192 -240 100 0 1 PV:$(sadtop)
p 192 -208 100 0 1 SNAM:
use esirs -512 807 100 0 nframes
xform 0 -304 960
p -416 784 100 0 1 DESC:Frames per data set
p -416 720 100 0 1 EGU:number
p -576 544 100 0 0 FDSC:Frames per data set
p -416 752 100 0 1 FTVL:LONG
p -416 656 100 0 1 PV:$(sadtop)
p -416 688 100 0 1 SNAM:
use esirs -1184 807 100 0 wcsTai
xform 0 -976 960
p -1088 784 100 0 1 DESC:Latest WCS info time stamp
p -1088 720 100 0 1 EGU:seconds
p -1248 544 100 0 0 FDSC:Latest WCS info time stamp
p -1088 752 100 0 1 FTVL:DOUBLE
p -912 752 100 0 1 PREC:4
p -1088 656 100 0 1 PV:$(sadtop)
p -1088 688 100 0 1 SNAM:
use esirs -1184 327 100 0 wcsRa
xform 0 -976 480
p -1088 304 100 0 1 DESC:Right Ascension of field centre
p -1088 240 100 0 1 EGU:radians
p -1248 64 100 0 0 FDSC:Right Ascension of field centre
p -1088 272 100 0 1 FTVL:DOUBLE
p -896 272 100 0 1 PREC:4
p -1088 176 100 0 1 PV:$(sadtop)
p -1088 208 100 0 1 SNAM:
use esirs -1184 -153 100 0 wcsDec
xform 0 -976 0
p -1088 -176 100 0 1 DESC:Declination of field centre
p -1088 -240 100 0 1 EGU:radians
p -1248 -416 100 0 0 FDSC:Declination of field centre
p -1088 -208 100 0 1 FTVL:DOUBLE
p -896 -208 100 0 1 PREC:4
p -1088 -304 100 0 1 PV:$(sadtop)
p -1088 -272 100 0 1 SNAM:
use estringouts -1472 -713 100 0 gratNameIn
xform 0 -1344 -640
p -1536 -834 100 0 0 OMSL:supervisory
p -1408 -752 100 0 1 PV:$(sadtop)
use estringouts -1072 -633 100 0 gratName
xform 0 -944 -560
p -1008 -704 100 0 1 DESC:Currently selected grating position
p -1136 -754 100 0 0 OMSL:closed_loop
p -1008 -672 100 0 1 PV:$(sadtop)
use estringouts -384 -713 100 0 gratMinIn
xform 0 -256 -640
p -448 -834 100 0 0 OMSL:supervisory
p -320 -752 100 0 1 PV:$(sadtop)
use estringouts 16 -633 100 0 gratMin
xform 0 144 -560
p 80 -704 100 0 1 DESC:Wave min for current grating position
p -48 -754 100 0 0 OMSL:closed_loop
p 80 -672 100 0 1 PV:$(sadtop)
use estringouts 1136 -649 100 0 gratMax
xform 0 1264 -576
p 1200 -720 100 0 1 DESC:Wave max for currentl grating position
p 1072 -770 100 0 0 OMSL:closed_loop
p 1200 -688 100 0 1 PV:$(sadtop)
use estringouts 736 -729 100 0 gratMaxIn
xform 0 864 -656
p 672 -850 100 0 0 OMSL:supervisory
p 800 -768 100 0 1 PV:$(sadtop)
use hwin -1408 -569 100 0 hwin#90
xform 0 -1312 -528
p -1405 -536 100 0 -1 val(in):$(ccsadtop)gratName
use hwin -320 -569 100 0 hwin#96
xform 0 -224 -528
p -317 -536 100 0 -1 val(in):$(ccsadtop)waveMin
use hwin 800 -585 100 0 hwin#97
xform 0 896 -544
p 803 -552 100 0 -1 val(in):$(ccsadtop)waveMax
use dcViewDHSSad 960 151 100 0 dcViewDHSSad#72
xform 0 1072 256
p 980 124 100 0 1 set0:sadtop $(sadtop)d_view_
use dcObsDHSSad 992 608 -100 0 dcObsDHSSad
xform 0 1056 672
p 964 540 100 0 1 set0:sadtop $(sadtop)d_obs_
use dcDHSSad 928 903 100 0 dcDHSSad#70
xform 0 1040 1008
use esirs 664 -241 100 0 dateobs
xform 0 872 -88
p 760 -264 100 0 1 DESC:UT DATE at exposure start
p 600 -440 100 0 0 EGU:time
p 600 -504 100 0 0 FDSC:UT DATE at exposure start
p 760 -296 100 0 1 FTVL:STRING
p 760 -360 100 0 1 PV:$(sadtop)
p 760 -328 100 0 1 SNAM:
[comments]
