[schematic2]
uniq 82
[tools]
[detail]
w 1736 1435 100 0 n#81 eapply.noOpApply.OCLH 1872 1488 1936 1488 1936 1424 1584 1424 1584 976 1792 976 dcNoOpCmd.dcNoOpCmd#61.CLID
w 1800 1371 100 0 n#80 eapply.noOpApply.OCLG 1872 1552 2000 1552 2000 1360 1648 1360 1648 1232 1792 1232 dcNoOpCmd.dcNoOpCmd#60.CLID
w 2264 667 100 0 n#79 eapply.noOpApply.OCLF 1872 1616 2128 1616 2128 656 2448 656 dcNoOpCmd.dcNoOpCmd#69.CLID
w 2008 1691 100 0 n#78 eapply.noOpApply.OCLE 1872 1680 2192 1680 2192 912 2448 912 dcNoOpCmd.dcNoOpCmd#47.CLID
w 2040 1755 100 0 n#77 eapply.noOpApply.OCLD 1872 1744 2256 1744 2256 1168 2448 1168 dcNoOpCmd.dcNoOpCmd#5.CLID
w 2072 1819 100 0 n#76 eapply.noOpApply.OCLC 1872 1808 2320 1808 2320 1424 2452 1424 2452 1420 dcNoOpCmd.dcNoOpCmd#4.CLID
w 2104 1883 100 0 n#75 eapply.noOpApply.OCLB 1872 1872 2384 1872 2384 1680 2448 1680 2448 1676 dcNoOpCmd.dcNoOpCmd#3.CLID
w 2136 1947 100 0 n#74 eapply.noOpApply.OCLA 1872 1936 2448 1936 dcNoOpCmd.dcNoOpCmd#2.CLID
w 1416 2043 -100 0 CLID inhier.CLID.P 1344 2112 1392 2112 1392 2032 1488 2032 eapply.noOpApply.CLID
w 1960 2651 100 0 n#72 dcNoOpCmd.dcNoOpCmd#69.MESS 2608 656 3024 656 3024 2640 944 2640 944 1616 1488 1616 eapply.noOpApply.INMF
w 1960 2619 100 0 n#71 dcNoOpCmd.dcNoOpCmd#69.VAL 2608 688 2992 688 2992 2608 976 2608 976 1648 1488 1648 eapply.noOpApply.INPF
w 1992 1659 100 0 n#70 eapply.noOpApply.OUTF 1872 1648 2160 1648 2160 688 2448 688 dcNoOpCmd.dcNoOpCmd#69.DIR
w 1608 699 100 0 n#68 dcNoOpCmd.dcNoOpCmd#60.VAL 1952 1264 2096 1264 2096 688 1168 688 1168 1584 1488 1584 eapply.noOpApply.INPG
w 1608 731 100 0 n#66 dcNoOpCmd.dcNoOpCmd#60.MESS 1952 1232 2064 1232 2064 720 1200 720 1200 1552 1488 1552 eapply.noOpApply.INMG
w 1624 795 100 0 n#65 dcNoOpCmd.dcNoOpCmd#61.VAL 1952 1008 2032 1008 2032 784 1264 784 1264 1520 1488 1520 eapply.noOpApply.INPH
w 1624 827 100 0 n#64 dcNoOpCmd.dcNoOpCmd#61.MESS 1952 976 2000 976 2000 816 1296 816 1296 1488 1488 1488 eapply.noOpApply.INMH
w 1768 1403 100 0 n#63 eapply.noOpApply.OUTH 1872 1520 1968 1520 1968 1392 1616 1392 1616 1008 1792 1008 dcNoOpCmd.dcNoOpCmd#61.DIR
w 1832 1339 100 0 n#62 eapply.noOpApply.OUTG 1872 1584 2032 1584 2032 1328 1680 1328 1680 1264 1792 1264 dcNoOpCmd.dcNoOpCmd#60.DIR
w 1960 2587 100 0 n#50 eapply.noOpApply.INME 1488 1680 1008 1680 1008 2576 2960 2576 2960 912 2608 912 dcNoOpCmd.dcNoOpCmd#47.MESS
w 1960 2555 100 0 n#49 dcNoOpCmd.dcNoOpCmd#47.VAL 2608 944 2928 944 2928 2544 1040 2544 1040 1712 1488 1712 eapply.noOpApply.INPE
w 2024 1723 100 0 n#48 eapply.noOpApply.OUTE 1872 1712 2224 1712 2224 944 2448 944 dcNoOpCmd.dcNoOpCmd#47.DIR
w 1960 2515 100 0 n#23 dcNoOpCmd.dcNoOpCmd#5.MESS 2608 1168 2896 1168 2896 2512 1072 2512 1072 1744 1488 1744 eapply.noOpApply.INMD
w 1960 2483 100 0 n#22 dcNoOpCmd.dcNoOpCmd#5.VAL 2608 1200 2864 1200 2864 2480 1104 2480 1104 1776 1488 1776 eapply.noOpApply.INPD
w 1960 2451 100 0 n#21 dcNoOpCmd.dcNoOpCmd#4.MESS 2612 1420 2832 1420 2832 2448 1136 2448 1136 1808 1488 1808 eapply.noOpApply.INMC
w 1960 2427 100 0 n#20 dcNoOpCmd.dcNoOpCmd#4.VAL 2612 1452 2800 1452 2800 2416 1168 2416 1168 1840 1488 1840 eapply.noOpApply.INPC
w 1960 2387 100 0 n#19 dcNoOpCmd.dcNoOpCmd#3.MESS 2608 1676 2768 1676 2768 2384 1200 2384 1200 1872 1488 1872 eapply.noOpApply.INMB
w 1960 2355 100 0 n#18 dcNoOpCmd.dcNoOpCmd#3.VAL 2608 1708 2736 1708 2736 2352 1232 2352 1232 1904 1488 1904 eapply.noOpApply.INPB
w 1960 2323 100 0 n#17 dcNoOpCmd.dcNoOpCmd#2.MESS 2608 1936 2704 1936 2704 2320 1264 2320 1264 1936 1488 1936 eapply.noOpApply.INMA
w 1960 2299 100 0 n#16 dcNoOpCmd.dcNoOpCmd#2.VAL 2608 1968 2672 1968 2672 2288 1296 2288 1296 1968 1488 1968 eapply.noOpApply.INPA
w 1428 2123 100 0 n#15 inhier.DIR.P 1360 2192 1424 2192 1424 2064 1488 2064 eapply.noOpApply.DIR
w 1964 2139 100 0 n#14 eapply.noOpApply.VAL 1872 2064 1968 2064 1968 2224 2064 2224 outhier.VAL.p
w 1912 2035 100 0 n#13 eapply.noOpApply.MESS 1872 2032 2000 2032 2000 2160 2064 2160 outhier.MESS.p
w 2056 1787 100 0 n#10 eapply.noOpApply.OUTD 1872 1776 2288 1776 2288 1200 2448 1200 dcNoOpCmd.dcNoOpCmd#5.DIR
w 2094 1843 100 0 n#9 eapply.noOpApply.OUTC 1872 1840 2352 1840 2352 1456 2452 1456 2452 1452 dcNoOpCmd.dcNoOpCmd#4.DIR
w 2126 1915 100 0 n#8 eapply.noOpApply.OUTB 1872 1904 2416 1904 2416 1712 2448 1712 2448 1708 dcNoOpCmd.dcNoOpCmd#3.DIR
w 2142 1971 100 0 n#7 eapply.noOpApply.OUTA 1872 1968 2448 1968 dcNoOpCmd.dcNoOpCmd#2.DIR
s 608 560 200 0 The user defined subroutine of the CAD records force
s 608 512 200 0 processing of the sequence record which is used to toggle
s 608 448 200 0 the CAR record to be BUSY for 1.5 seconds then back to IDLE
s 608 624 250 0 No-Op Commands
[cell use]
use inhier 1344 2151 100 0 DIR
xform 0 1360 2192
use inhier 1328 2071 100 0 CLID
xform 0 1344 2112
use dcNoOpCmd 2448 535 100 0 dcNoOpCmd#69
xform 0 2528 640
p 2468 508 100 768 1 set1:cmd datum
use dcNoOpCmd 2448 1815 100 0 dcNoOpCmd#2
xform 0 2528 1920
p 2468 1788 100 768 1 set1:cmd verify
use dcNoOpCmd 2448 1555 100 0 dcNoOpCmd#3
xform 0 2528 1660
p 2468 1528 100 768 1 set1:cmd endVerify
use dcNoOpCmd 2452 1299 100 0 dcNoOpCmd#4
xform 0 2532 1404
p 2472 1272 100 768 1 set1:cmd guide
use dcNoOpCmd 2448 1047 100 0 dcNoOpCmd#5
xform 0 2528 1152
p 2468 1020 100 768 1 set1:cmd endGuide
use dcNoOpCmd 2448 791 100 0 dcNoOpCmd#47
xform 0 2528 896
p 2468 764 100 768 1 set1:cmd endObserve
use dcNoOpCmd 1792 1111 100 0 dcNoOpCmd#60
xform 0 1872 1216
p 1812 1084 100 768 1 set1:cmd pause
use dcNoOpCmd 1792 855 100 0 dcNoOpCmd#61
xform 0 1872 960
p 1812 828 100 768 1 set1:cmd continue
use eborderC 448 248 -100 0 eborderC#45
xform 0 2128 1552
p 3024 400 100 768 -1 author:Peter Young
p 3024 520 40 0 -1 comment1:1997-09-30 GMOS version. Ken Ramey
p 3024 500 40 0 -1 comment2:1999-01-20 Added CAR record. Janet Tvedt
p 3024 480 40 0 -1 comment3:1999-02-03 Added endObserve. Janet Tvedt
p 3024 460 40 0 -1 comment4:2000-11-02 Modified for GNIRS. Peter Young
p 3024 370 100 768 -1 date:2000-11-02
p 3248 448 200 768 -1 file:dcNoOpApply.sch
p 3532 404 100 1792 -1 page:1
p 3644 404 100 1792 -1 pages:1
p 3296 400 100 0 -1 revision:gnirs v2.0
p 3320 510 150 768 -1 system:Gemini GNIRS DC
use outhier 2032 2183 100 0 VAL
xform 0 2048 2224
p 1968 2096 100 0 0 revision:2.2
use outhier 2032 2119 100 0 MESS
xform 0 2048 2160
use eapply 1564 2144 100 0 noOpApply
xform 0 1680 1792
[comments]
