[symbol2]
bbox -288 -48 -64 208
port -272 140 100 0 CLID symbol 1 -288 144 0
port -80 144 100 2048 MESS symbol 2 -64 144 0
port -80 176 100 2048 VAL symbol 2 -64 176 0
port -272 176 100 1536 DIR symbol 1 -288 176 0
uniq 2
[tools]
[attributes]
[layers]
<symbol>
l 100 0 0 -272 -32 GNIRS SDSU Control
r 0 -288 0 -64 208
r 0 -288 -48 -64 208
v 0 -272 16
-240 112
-224 80
-192 160
-176 128
-144 192
-160 112
-176 96
-192 112
-208 64
-224 48
-240 64
-272 16
_
[comments]
