[symbol2]
bbox -448 160 -224 320
uniq 1
[tools]
[attributes]
p -428 140 100 0 1 set0:sadtop $(sadtop)
[layers]
<symbol>
l 100 7 0 -336 176 dcSDSUTestSad
r 7 -368 216 -304 296
r 0 -448 160 -224 320
v 7 -368 224
-352 240
-352 224
-336 240
-336 224
-320 240
-320 224
-304 240
_
v 7 -368 248
-352 264
-352 248
-336 264
-336 248
-320 264
-320 248
-304 264
_
v 7 -368 272
-352 288
-352 272
-336 288
-336 272
-320 288
-320 272
-304 288
_
[comments]
