[schematic2]
uniq 25
[tools]
[detail]
w 5136 3627 100 0 n#1 ecad4.testSDSU.OUTA 5088 3616 5232 3616 hwout.hwout#82.outp
w 4680 3659 100 0 n#2 estringouts.SDSUntests.OUT 4640 3648 4768 3648 ecad4.testSDSU.A
w 3336 4139 100 0 n#3 ecad4.testSDSU.MESS 5088 3808 5200 3808 5200 4048 4224 4048 4224 4128 2496 4128 2496 3568 2704 3568 eapply.SDSUUtilsApply.INMD
w 5182 3851 -100 0 c ecad4.testSDSU.VAL 5088 3840 5248 3840 5248 3264 5296 3264 cadPlus.testSDSUP.STAT
w 3336 4107 -100 0 c junction 5152 3840 5152 4016 4192 4016 4192 4096 2528 4096 2528 3600 2704 3600 eapply.SDSUUtilsApply.INPD
w 3992 3963 100 0 n#4 eapply.SDSUUtilsApply.OCLD 3088 3568 3360 3568 3360 3952 4672 3952 4672 3808 4768 3808 ecad4.testSDSU.ICID
w 3992 3995 100 0 n#5 eapply.SDSUUtilsApply.OUTD 3088 3600 3328 3600 3328 3984 4704 3984 4704 3840 4768 3840 ecad4.testSDSU.DIR
w 4158 3851 100 0 n#6 ecad4.resetSDSU.VAL 4096 3840 4256 3840 4256 3264 4304 3264 cadPlus.resetSDSUP.STAT
w 3358 4027 100 0 n#6 junction 4112 3840 4112 4016 2640 4016 2640 3728 2704 3728 eapply.SDSUUtilsApply.INPB
w 3352 4075 100 0 n#7 ecad4.resetSDSU.MESS 4096 3808 4144 3808 4144 4064 2608 4064 2608 3696 2704 3696 eapply.SDSUUtilsApply.INMB
w 2792 3067 100 0 n#8 ecad4.cancelSDSU.MESS 3024 2880 3056 2880 3056 3056 2576 3056 2576 3760 2704 3760 eapply.SDSUUtilsApply.INMA
w 3118 2923 -100 0 c ecad4.cancelSDSU.VAL 3024 2912 3184 2912 3184 2336 3232 2336 cadPlus.cancelSDSUP.STAT
w 2800 3035 -100 0 c junction 3088 2912 3088 3024 2560 3024 2560 3792 2704 3792 eapply.SDSUUtilsApply.INPA
w 2904 3259 100 0 n#9 eapply.SDSUUtilsApply.OCLA 3088 3760 3168 3760 3168 3248 2688 3248 2688 2880 2704 2880 ecad4.cancelSDSU.ICID
w 2928 3243 100 0 n#10 eapply.SDSUUtilsApply.OUTA 3088 3792 3200 3792 3200 3232 2704 3232 2704 2912 ecad4.cancelSDSU.DIR
w 3064 2283 100 0 n#11 ecad4.cancelSDSU.SPLK 3024 2272 3152 2272 3152 2368 3232 2368 cadPlus.cancelSDSUP.SPIN
w 3152 2411 100 0 n#12 ecad4.cancelSDSU.STLK 3024 2304 3120 2304 3120 2400 3232 2400 cadPlus.cancelSDSUP.STIN
w 3640 2731 100 0 n#13 estringouts.SDSUdebug.OUT 3568 2720 3760 2720 ecad4.debugSDSU.A
w 4144 2699 100 0 n#14 ecad4.debugSDSU.OUTA 4080 2688 4256 2688 hwout.hwout#53.outp
w 3344 3643 -100 0 c eapply.SDSUUtilsApply.OCLC 3088 3632 3648 3632 3648 2880 3760 2880 ecad4.debugSDSU.ICID
w 3344 3099 -100 0 c ecad4.debugSDSU.VAL 4080 2912 4144 2912 4144 3088 2592 3088 2592 3664 2704 3664 eapply.SDSUUtilsApply.INPC
w 4174 2923 -100 0 c junction 4144 2912 4240 2912 4240 2336 4288 2336 cadPlus.debugSDSUP.STAT
w 4120 2283 100 0 n#15 ecad4.debugSDSU.SPLK 4080 2272 4208 2272 4208 2368 4288 2368 cadPlus.debugSDSUP.SPIN
w 4208 2411 100 0 n#16 ecad4.debugSDSU.STLK 4080 2304 4176 2304 4176 2400 4288 2400 cadPlus.debugSDSUP.STIN
w 3360 3115 -100 0 c ecad4.debugSDSU.MESS 4080 2880 4160 2880 4160 3104 2608 3104 2608 3632 2704 3632 eapply.SDSUUtilsApply.INMC
w 3360 3675 -100 0 c eapply.SDSUUtilsApply.OUTC 3088 3664 3680 3664 3680 2912 3760 2912 ecad4.debugSDSU.DIR
w 5128 3211 100 0 n#17 ecad4.testSDSU.SPLK 5088 3200 5216 3200 5216 3296 5296 3296 cadPlus.testSDSUP.SPIN
w 5216 3339 100 0 n#18 ecad4.testSDSU.STLK 5088 3232 5184 3232 5184 3328 5296 3328 cadPlus.testSDSUP.STIN
w 3808 2155 100 0 n#19 junction 5136 2896 5136 2144 2528 2144 2528 3536 2704 3536 eapply.SDSUUtilsApply.INPE
w 5144 2907 100 0 n#19 ecad4.shutdownSDSU.VAL 5088 2896 5248 2896 5248 2320 5296 2320 cadPlus.shutdownSDSUP.STAT
w 3800 2123 -100 0 c ecad4.shutdownSDSU.MESS 5088 2864 5152 2864 5152 2112 2496 2112 2496 3504 2704 3504 eapply.SDSUUtilsApply.INME
w 4096 3035 -100 0 c eapply.SDSUUtilsApply.OUTE 3088 3536 3552 3536 3552 3024 4688 3024 4688 2896 4768 2896 ecad4.shutdownSDSU.DIR
w 4080 3019 -100 0 c eapply.SDSUUtilsApply.OCLE 3088 3504 3536 3504 3536 3008 4672 3008 4672 2864 4768 2864 ecad4.shutdownSDSU.ICID
w 5216 2395 100 0 n#20 ecad4.shutdownSDSU.STLK 5088 2288 5184 2288 5184 2384 5296 2384 cadPlus.shutdownSDSUP.STIN
w 5128 2267 100 0 n#21 ecad4.shutdownSDSU.SPLK 5088 2256 5216 2256 5216 2352 5296 2352 cadPlus.shutdownSDSUP.SPIN
w 3360 3707 -100 0 CLID eapply.SDSUUtilsApply.OCLB 3088 3696 3680 3696 3680 3808 3776 3808 ecad4.resetSDSU.ICID
w 4136 3211 100 0 n#22 ecad4.resetSDSU.SPLK 4096 3200 4224 3200 4224 3296 4304 3296 cadPlus.resetSDSUP.SPIN
w 4224 3339 100 0 n#23 ecad4.resetSDSU.STLK 4096 3232 4192 3232 4192 3328 4304 3328 cadPlus.resetSDSUP.STIN
w 3384 3739 100 0 n#24 eapply.SDSUUtilsApply.OUTB 3088 3728 3716 3728 3716 3840 3776 3840 ecad4.resetSDSU.DIR
[cell use]
use hwout 4256 2647 100 0 hwout#53
xform 0 4352 2688
p 4352 2679 100 0 -1 val(outp):$(sadtop)SDSUdebug PP MS
use hwout 5232 3575 100 0 hwout#82
xform 0 5328 3616
p 5328 3607 100 0 -1 val(outp):$(sadtop)SDSUntests PP MS
use estringouts 3312 2663 100 0 SDSUdebug
xform 0 3440 2736
p 3248 2702 100 0 0 VAL:0
use estringouts 4384 3591 100 0 SDSUntests
xform 0 4512 3664
p 4320 3630 100 0 0 VAL:0
use eapply 2768 3968 100 0 SDSUUtilsApply
xform 0 2896 3616
use cadPlus 5296 3376 150 0 testSDSUP
xform 0 5376 3280
p 5312 3168 100 0 1 set1:cad testSDSUP
use cadPlus 5296 2432 150 0 shutdownSDSUP
xform 0 5376 2336
p 5296 2224 100 0 1 set1:cad shutdownSDSUP
use cadPlus 4304 3376 150 0 resetSDSUP
xform 0 4384 3280
p 4320 3168 100 0 1 set1:cad resetSDSUP
use cadPlus 4288 2448 150 0 debugSDSUP
xform 0 4368 2352
p 4304 2240 100 0 1 set1:cad debugSDSUP
use cadPlus 3232 2448 150 0 cancelSDSUP
xform 0 3312 2352
p 3248 2240 100 0 1 set1:cad cancelSDSUP
use ecad4 4860 3892 150 0 testSDSU
xform 0 4928 3520
p 5332 3020 100 0 0 MFLG:THREE STATES
p 4848 3136 100 0 1 SNAM:dcCADtestSDSU
use ecad4 4860 2948 150 0 shutdownSDSU
xform 0 4928 2576
p 5332 2076 100 0 0 MFLG:THREE STATES
p 4832 2176 100 0 1 SNAM:dcCADsetupSDSU
use ecad4 3868 3892 150 0 resetSDSU
xform 0 3936 3520
p 4340 3020 100 0 0 MFLG:THREE STATES
p 3840 3120 100 0 1 SNAM:dcCADsetupSDSU
use ecad4 3852 2964 150 0 debugSDSU
xform 0 3920 2592
p 3856 2736 100 0 1 FTVA:LONG
p 4324 2092 100 0 0 MFLG:THREE STATES
p 3840 2208 100 0 1 SNAM:dcCADdebugSDSU
use ecad4 2796 2964 150 0 cancelSDSU
xform 0 2864 2592
p 3268 2092 100 0 0 MFLG:THREE STATES
p 2784 2208 100 0 1 SNAM:dcCADsetupSDSU
use eborderC 2280 1659 100 0 eborderC#0
xform 0 3960 2964
p 4856 1812 100 768 -1 author:M Jarnyk
p 4856 1924 40 0 -1 comment1:
p 4856 1904 40 0 -1 comment2:
p 4856 1780 100 768 -1 date:18 Oct 2001
p 5080 1860 200 768 -1 file:dcSDSUUtils
p 5352 1812 100 0 -1 page:1
p 5464 1812 100 0 -1 pages:1
p 5128 1812 100 0 -1 revision:0
p 5080 1924 150 768 -1 system:Gemini GNIRS DC
[comments]
