[schematic2]
uniq 499
[tools]
[detail]
w 442 683 100 0 n#498 dcSDSUCRT.dcSDSUCRT#494.VAL 1120 1024 1200 1024 1200 672 -256 672 -256 1184 -48 1184 eapply.SDSUDSPApply.INPB
w 442 715 100 0 n#497 dcSDSUCRT.dcSDSUCRT#494.MESS 1120 992 1168 992 1168 704 -224 704 -224 1152 -48 1152 eapply.SDSUDSPApply.INMB
w 682 1003 100 0 n#496 eapply.SDSUDSPApply.OCLB 336 1152 528 1152 528 992 896 992 dcSDSUCRT.dcSDSUCRT#494.CLID
w 714 1035 100 0 n#495 eapply.SDSUDSPApply.OUTB 336 1184 592 1184 592 1024 896 1024 dcSDSUCRT.dcSDSUCRT#494.DIR
w 450 1643 100 0 n#475 eapply.SDSUDSPApply.INMA -48 1216 -256 1216 -256 1632 1216 1632 1216 1376 1120 1376 dcSDSUDSPBoard.dcSDSUDSPBoard#465.MESS
w 442 1611 100 0 n#474 dcSDSUDSPBoard.dcSDSUDSPBoard#465.VAL 1120 1408 1168 1408 1168 1600 -224 1600 -224 1248 -48 1248 eapply.SDSUDSPApply.INPA
w 714 1387 100 0 n#469 dcSDSUDSPBoard.dcSDSUDSPBoard#465.CLID 896 1376 592 1376 592 1216 336 1216 eapply.SDSUDSPApply.OCLA
w 682 1419 100 0 n#468 eapply.SDSUDSPApply.OUTA 336 1248 528 1248 528 1408 896 1408 dcSDSUDSPBoard.dcSDSUDSPBoard#465.DIR
w -110 1323 -100 0 CLID inhier.CLID.P -160 1392 -112 1392 -112 1312 -48 1312 eapply.SDSUDSPApply.CLID
w -126 1499 100 0 n#347 inhier.DIR.P -112 1488 -80 1488 -80 1344 -48 1344 eapply.SDSUDSPApply.DIR
w 338 1323 100 0 n#117 eapply.SDSUDSPApply.MESS 336 1312 400 1312 400 1472 464 1472 outhier.MESS.p
w 386 1563 100 0 n#115 eapply.SDSUDSPApply.VAL 336 1344 368 1344 368 1552 464 1552 outhier.VAL.p
[cell use]
use dcSDSUCRT 896 775 100 0 dcSDSUCRT#494
xform 0 1008 928
use dcSDSUDSPBoard 896 1159 100 0 dcSDSUDSPBoard#465
xform 0 1008 1312
p 960 1152 100 0 0 set0:
p 912 1088 100 0 0 set1:
use inhier -128 1447 100 0 DIR
xform 0 -112 1488
use inhier -176 1351 100 0 CLID
xform 0 -160 1392
use eapply 16 1424 150 0 SDSUDSPApply
xform 0 144 1072
use outhier 432 1431 100 0 MESS
xform 0 448 1472
use outhier 432 1511 100 0 VAL
xform 0 448 1552
use eborderC -784 -313 100 0 eborderC#87
xform 0 896 992
p 1792 -160 100 768 -1 author:Mark Jarnyk
p 1792 -192 100 768 -1 date:2001-10-05
p 2016 -112 200 768 -1 file:dcSDSUCmd
p 2288 -160 100 0 -1 page:1
p 2400 -160 100 0 -1 pages:1
p 2064 -160 100 0 -1 revision:0
p 2016 -48 150 768 -1 system:Gemini GNIRS DC
[comments]
