[symbol2]
bbox -448 160 -224 320
uniq 1
[tools]
[attributes]
p -428 140 100 0 1 set0:sadtop $(sadtop)
[layers]
<symbol>
l 100 7 0 -336 176 dcSDSUDSPSad
r 0 -448 160 -224 320
r 0 -352 224 -320 272
v 0 -352 268
-356 268
_
v 0 -352 260
-356 260
_
v 0 -352 252
-356 252
_
v 0 -352 244
-356 244
_
v 0 -352 236
-356 236
_
v 0 -352 228
-356 228
_
v 0 -316 268
-320 268
_
v 0 -316 260
-320 260
_
v 0 -316 252
-320 252
_
v 0 -316 244
-320 244
_
v 0 -316 236
-320 236
_
v 0 -316 228
-320 228
_
[comments]
