[symbol2]
bbox -448 144 -224 384
uniq 1
[tools]
[attributes]
[layers]
<symbol>
l 75 0 0 -432 208 database)
l 100 7 0 -384 176 dcSeqSad
l 75 0 0 -432 240 (Exposure
l 75 0 0 -432 224 status/alarm
r 0 -448 159 -224 384
v 0 -272 372
-272 276
_
v 0 -276 364
-272 372
-268 364
_
v 0 -340 362
-336 370
-332 362
_
v 0 -336 370
-336 274
_
v 0 -236 284
-240 276
-244 284
_
v 0 -240 372
-240 276
_
v 0 -304 370
-304 274
_
v 0 -300 282
-304 274
-308 282
_
v 0 -366 282
-370 274
-374 282
_
v 0 -370 370
-370 274
_
v 0 -404 360
-400 368
-396 360
_
v 0 -428 280
-432 272
-436 280
_
v 0 -400 368
-400 272
_
v 0 -432 368
-432 272
_
v 0 -256 384
-256 256
_
v 0 -288 384
-288 256
_
v 0 -320 384
-320 256
_
v 0 -352 384
-352 256
_
v 0 -384 384
-384 256
_
v 0 -416 384
-416 256
_
[comments]
