[schematic2]
uniq 1
[tools]
[detail]
[cell use]
use bb200tr 0 0 100 0 bb200tr#1
xform 0 1280 800
use dc 824 672 100 0 dc#2
xform 0 1304 912
p 918 636 100 0 1 set0:engtop $(realtop)eng:
p 919 615 100 0 1 set1:sadtop $(dcsadtop)
p 919 615 100 0 1 set2:top    $(dctop)
[comments]
