[schematic2]
uniq 6
[tools]
[detail]
w 3160 3275 -100 0 CLID inhier.CLID.P 3136 3264 3232 3264 3232 3184 3328 3184 ecad4.stop.ICID
w 3676 3291 100 0 n#1 ecad4.stop.VAL 3648 3216 3680 3216 3680 3376 3776 3376 outhier.VAL.p
w 3742 3227 100 0 n#1 junction 3680 3216 3840 3216 3840 2640 3904 2640 cadPlus.stopP.STAT
w 3704 2587 100 0 n#2 ecad4.stop.SPLK 3648 2576 3808 2576 3808 2672 3904 2672 cadPlus.stopP.SPIN
w 3688 2619 100 0 n#3 ecad4.stop.STLK 3648 2608 3776 2608 3776 2704 3904 2704 cadPlus.stopP.STIN
w 3716 3243 100 0 n#4 ecad4.stop.MESS 3648 3184 3712 3184 3712 3312 3776 3312 outhier.MESS.p
w 3260 3275 100 0 n#5 inhier.DIR.P 3200 3344 3264 3344 3264 3216 3328 3216 ecad4.stop.DIR
[cell use]
use inhier 3120 3223 100 0 CLID
xform 0 3136 3264
use inhier 3184 3303 100 0 DIR
xform 0 3200 3344
use cadPlus 3904 2752 150 0 stopP
xform 0 3984 2656
p 3904 2544 100 0 1 set1:cad stopP
use outhier 3744 3271 100 0 MESS
xform 0 3760 3312
use outhier 3744 3335 100 0 VAL
xform 0 3760 3376
use ecad4 3420 3272 150 0 stop
xform 0 3488 2896
p 3476 2620 100 0 0 MFLG:THREE STATES
p 3408 2496 100 0 1 SNAM:CADstop
use eborderC 2440 1579 100 0 eborderC#0
xform 0 4120 2884
p 5016 1732 100 768 -1 author:Peter Young
p 5016 1844 40 0 -1 comment1:1997-10-01 GMOS version. Ken Ramey
p 5016 1824 40 0 -1 comment2:2000-12-12 Modified for GNIRS. Peter Young
p 5016 1700 100 768 -1 date:2000-12-12
p 5240 1780 200 768 -1 file:dcStopCad.sch
p 5512 1732 100 0 -1 page:1
p 5624 1732 100 0 -1 pages:1
p 5288 1732 100 0 -1 revision:0
p 5240 1844 150 768 -1 system:Gemini GNIRS DC
[comments]
