[schematic2]
uniq 82
[tools]
[detail]
w 2584 2827 100 0 n#81 dcSimulateCad.dcSimulateCad#77.MESS 3200 1152 3616 1152 3616 2816 1600 2816 1600 1776 2080 1776 eapply.sysApply.INMF
w 2584 2795 100 0 n#80 dcSimulateCad.dcSimulateCad#77.VAL 3200 1184 3584 1184 3584 2784 1632 2784 1632 1808 2080 1808 eapply.sysApply.INPF
w 2792 1163 100 0 n#79 eapply.sysApply.OCLF 2464 1776 2592 1776 2592 1152 3040 1152 dcSimulateCad.dcSimulateCad#77.CLID
w 2808 1195 100 0 n#78 eapply.sysApply.OUTF 2464 1808 2624 1808 2624 1184 3040 1184 dcSimulateCad.dcSimulateCad#77.DIR
w 2824 1419 100 0 n#75 eapply.sysApply.OCLE 2464 1840 2656 1840 2656 1408 3040 1408 dcDebugCad.dcDebugCad#70.CLID
w 2600 1979 100 0 n#74 eapply.sysApply.OCLC 2464 1968 2784 1968 2784 1904 3040 1904 dcTestCad.dcTestCad#5.CLID
w 2616 2043 100 0 n#73 eapply.sysApply.OCLB 2464 2032 2816 2032 2816 2128 3040 2128 3040 2124 dcInitCad.dcInitCad#3.CLID
w 2856 1675 100 0 n#72 eapply.sysApply.OCLD 2464 1904 2720 1904 2720 1664 3040 1664 dcParkCad.dcParkCad#57.CLID
w 2584 2107 100 0 n#71 eapply.sysApply.OCLA 2464 2096 2752 2096 2752 2352 3040 2352 3040 2348 dcRebootCad.dcRebootCad#2.CLID
w 2576 2763 100 0 n#69 dcDebugCad.dcDebugCad#70.MESS 3200 1408 3536 1408 3536 2752 1664 2752 1664 1840 2080 1840 eapply.sysApply.INME
w 2576 2731 100 0 n#68 dcDebugCad.dcDebugCad#70.VAL 3200 1440 3504 1440 3504 2720 1696 2720 1696 1872 2080 1872 eapply.sysApply.INPE
w 2840 1451 100 0 n#67 eapply.sysApply.OUTE 2464 1872 2688 1872 2688 1440 3040 1440 dcDebugCad.dcDebugCad#70.DIR
w 2584 2699 100 0 n#60 dcParkCad.dcParkCad#57.MESS 3200 1664 3472 1664 3472 2688 1744 2688 1744 1904 2080 1904 eapply.sysApply.INMD
w 2584 2667 100 0 n#59 dcParkCad.dcParkCad#57.VAL 3200 1696 3440 1696 3440 2656 1776 2656 1776 1936 2080 1936 eapply.sysApply.INPD
w 2584 1947 100 0 n#58 eapply.sysApply.OUTD 2464 1936 2752 1936 2752 1696 3040 1696 dcParkCad.dcParkCad#57.DIR
w 2584 2635 100 0 n#56 dcTestCad.dcTestCad#5.MESS 3200 1904 3408 1904 3408 2624 1808 2624 1808 1968 2080 1968 eapply.sysApply.INMC
w 2584 2603 100 0 n#55 dcTestCad.dcTestCad#5.VAL 3200 1936 3376 1936 3376 2592 1840 2592 1840 2000 2080 2000 eapply.sysApply.INPC
w 2616 2011 100 0 n#54 eapply.sysApply.OUTC 2464 2000 2816 2000 2816 1936 3040 1936 dcTestCad.dcTestCad#5.DIR
w 2044 2299 100 0 n#36 inhier.DIR.P 2016 2384 2048 2384 2048 2224 2080 2224 eapply.sysApply.DIR
w 2524 2299 100 0 n#35 eapply.sysApply.VAL 2464 2224 2528 2224 2528 2384 2628 2384 outhier.VAL.p
w 2556 2249 100 0 n#34 eapply.sysApply.MESS 2464 2192 2560 2192 2560 2316 2628 2316 outhier.MESS.p
w 2584 2547 100 0 n#23 dcInitCad.dcInitCad#3.MESS 3204 2124 3328 2124 3328 2544 1888 2544 1888 2032 2080 2032 eapply.sysApply.INMB
w 2584 2515 100 0 n#22 dcInitCad.dcInitCad#3.VAL 3204 2156 3296 2156 3296 2512 1920 2512 1920 2064 2080 2064 eapply.sysApply.INPB
w 2584 2483 100 0 n#21 dcRebootCad.dcRebootCad#2.MESS 3204 2348 3204 2352 3264 2352 3264 2480 1952 2480 1952 2096 2080 2096 eapply.sysApply.INMA
w 2584 2451 100 0 n#20 dcRebootCad.dcRebootCad#2.VAL 3204 2380 3232 2380 3232 2448 1984 2448 1984 2128 2080 2128 eapply.sysApply.INPA
w 2608 2067 100 0 n#9 eapply.sysApply.OUTB 2464 2064 2788 2064 2788 2156 3044 2156 dcInitCad.dcInitCad#3.DIR
w 2864 2395 100 0 n#8 eapply.sysApply.OUTA 2464 2128 2720 2128 2720 2384 3044 2384 3044 2380 dcRebootCad.dcRebootCad#2.DIR
s 1200 896 200 0 DATUM are sequenced here. Commands not marked are ignored.
s 1200 960 200 0 systems commands, REBOOT, INIT, TEST, PARK and
s 1200 1024 200 0 Top level system command APPLY records. GEMINI OCS
[cell use]
use dcSimulateCad 3040 1031 100 0 dcSimulateCad#77
xform 0 3120 1136
use dcDebugCad 3040 1287 100 0 dcDebugCad#70
xform 0 3120 1392
use inhier 2000 2343 100 0 DIR
xform 0 2016 2384
use outhier 2596 2275 100 0 MESS
xform 0 2612 2316
use outhier 2596 2343 100 0 VAL
xform 0 2612 2384
use dcParkCad 3040 1543 100 0 dcParkCad#57
xform 0 3120 1648
use dcTestCad 3040 1783 100 0 dcTestCad#5
xform 0 3120 1888
use dcInitCad 3040 2003 100 0 dcInitCad#3
xform 0 3120 2108
use dcRebootCad 3040 2227 100 0 dcRebootCad#2
xform 0 3120 2332
use eapply 2160 2320 150 0 sysApply
xform 0 2272 1952
use eborderC 984 679 100 0 eborderC#0
xform 0 2664 1984
p 3560 832 100 768 -1 author:Peter Young
p 3552 976 40 0 -1 comment1:1997-09-29 Original GMOS version. Ken Ramey 
p 3552 960 40 0 -1 comment2:1999-01-25 Added seq and CAR. Janet Tvedt
p 3552 944 40 0 -1 comment3:1999-02-03 Removed reset. Janet Tvedt
p 3552 928 40 0 -1 comment4:2000-11-02 Modified for GNIRS. Peter Young
p 3560 800 100 768 -1 date:2000-11-02
p 3784 880 200 768 -1 file:dcSysApply.sch
p 4056 832 100 0 -1 page:1
p 4168 832 100 0 -1 pages:1
p 3832 832 100 0 -1 revision:0
p 3784 944 150 768 -1 system:Gemini GNIRS DC
[comments]
